superfluous material examples – Introduction to Biostatistics
…
superfluous material examples

library(tidyverse)

An okay way to look at a data frame

Sometimes the way the dataset is saved will make it print just the first few rows. This is totally okay in your rendered doc. Indeed, oftentimes printing the data to the screen is a great way to communicate aspects of the data (variable names, variable types, etc.)

library(nycflights13)
flights

# A tibble: 336,776 × 19
    year month   day dep_time sched_dep_time dep_delay arr_time sched_arr_time
   <int> <int> <int>    <int>          <int>     <dbl>    <int>          <int>
 1  2013     1     1      517            515         2      830            819
 2  2013     1     1      533            529         4      850            830
 3  2013     1     1      542            540         2      923            850
 4  2013     1     1      544            545        -1     1004           1022
 5  2013     1     1      554            600        -6      812            837
 6  2013     1     1      554            558        -4      740            728
 7  2013     1     1      555            600        -5      913            854
 8  2013     1     1      557            600        -3      709            723
 9  2013     1     1      557            600        -3      838            846
10  2013     1     1      558            600        -2      753            745
# ℹ 336,766 more rows
# ℹ 11 more variables: arr_delay <dbl>, carrier <chr>, flight <int>,
#   tailnum <chr>, origin <chr>, dest <chr>, air_time <dbl>, distance <dbl>,
#   hour <dbl>, minute <dbl>, time_hour <dttm>
…
      action     outcome
1 non-smoker lung_cancer
2 non-smoker lung_cancer
3 non-smoker lung_cancer
4 non-smoker lung_cancer
5 non-smoker lung_cancer
6 non-smoker lung_cancer

Another way to print only the top few rows is to change the object from a data.frame into a tibble (a tibble is like a data.frame but it has nice printing options). Note that one benefit of tibble() over head() is that the reader can see the size of the data frame (number of rows and columns).

smokecancer |> 
  tibble()

# A tibble: 120 × 2
   action     outcome    
   <chr>      <chr>      
 1 non-smoker lung_cancer
 2 non-smoker lung_cancer
 3 non-smoker lung_cancer
 4 non-smoker lung_cancer
 5 non-smoker lung_cancer
 6 non-smoker lung_cancer
 7 non-smoker lung_cancer
 8 non-smoker lung_cancer
 9 non-smoker lung_cancer
10 non-smoker lung_cancer
# ℹ 110 more rows
…
