Introduction to Biostatistics - Lab 12 - Math 58B: Multiple Linear Regression
…
Instead use the scatter plot to discuss whether you think the technical conditions are met. If you want to know more about residual plots, I’m happy to discuss! [Use residual plots to evaluate whether the conditions of least squares regression are reasonable. Provide plots and comments on whether the linear model seems reasonable here.]

Note that the augment() function will give you residuals (.resid) as well as predicted values (.fitted). Once you have the observations, you can plot them using ggplot(). Put .resid on the y-axis and .fitted on the x-axis. You might also use + geom_hline(yintercept = 0) to add a horizontal line at zero.

m_bty %>%
  augment()

# A tibble: 463 × 8
   score bty_avg .fitted   .resid    .hat .sigma      .cooksd .std.resid
   <dbl>   <dbl>   <dbl>    <dbl>   <dbl>  <dbl>        <dbl>      <dbl>
 1   4.7    5       4.21  0.486   0.00247  0.535 0.00103         0.911  
 2   4.1    5       4.21 -0.114   0.00247  0.535 0.0000560      -0.213  
 3   3.9    5       4.21 -0.314   0.00247  0.535 0.000427       -0.587  
 4   4.8    5       4.21  0.586   0.00247  0.535 0.00149         1.10   
 5   4.6    3       4.08  0.520   0.00403  0.535 0.00192         0.974  
 6   4.3    3       4.08  0.220   0.00403  0.535 0.000343        0.412  
 7   2.8    3       4.08 -1.28    0.00403  0.532 0.0116         -2.40   
 8   4.1    3.33    4.10 -0.00244 0.00325  0.535 0.0000000340   -0.00457
 9   3.4    3.33    4.10 -0.702   0.00325  0.534 0.00282        -1.32   
10   4.5    3.17    4.09  0.409   0.00361  0.535 0.00106         0.765  
# ℹ 453 more rows
…
